    ________
   /_______/\
   \ \    / /
 ___\ \__/_/___       ___ _ __ ___   __ _  ___ ___ 
/____\ \______/\     / _ \ '_ ` _ \ / _` |/ __/ __|
\ \   \/ /   / /    |  __/ | | | | | (_| | (__\__ \
 \ \  / /\  / /      \___|_| |_| |_|\__,_|\___|___/
  \ \/ /\ \/ /
   \_\/  \_\/
